What are the names of the cars with 4 cylinders? - Data Se
…
How to unnest?

Simple:

d_nest %>% 
  unnest()
#> # A tibble: 32 x 2
#>      cyl car_names     
#>    <dbl> <chr>         
#>  1     6 Mazda RX4     
#>  2     6 Mazda RX4 Wag 
#>  3     6 Hornet 4 Drive
#>  4     6 Valiant       
#>  5     6 Merc 280      
#>  6     6 Merc 280C     
#>  7     6 Ferrari Dino  
#>  8     4 Datsun 710    
#>  9     4 Merc 240D     
#> 10     4 Merc 230      
#> # ... with 22 more rows
…
