Fallstudie zur Regressionsanalyse -- ggplot2movies - Data Se
…
\(R^2\) ist hier per Definition gleich Null.

Modell 1: budget_log10

movies2_train %>% 
  drop_na(budget_log10, rating) %>% 
  lm(rating ~ budget_log10, data = .)  -> m1
#> Error in lm.fit(x, y, offset = offset, singular.ok = singular.ok, ...): NA/NaN/Inf in 'x'

Upps, ein Fehler, was ist passiert? Die Fehlermeldung sagt uns, es gäbe unendliche Werte in unseren Daten. Gut, eine brave Maschine weiß dann nicht genau, was sie tun soll …

movies2_train %>% 
  select(budget_log10, rating) %>% 
  filter(budget_log10 == -Inf)
#> # A tibble: 21 x 2
#>    budget_log10 rating
#>           <dbl>  <dbl>
#>  1         -Inf    5.1
#>  2         -Inf    9.6
#>  3         -Inf    6.1
#>  4         -Inf    6.8
#>  5         -Inf    9.2
#>  6         -Inf    8.1
#>  7         -Inf    4.3
#>  8         -Inf    5  
#>  9         -Inf    7.4
#> 10         -Inf    5.7
#> # … with 11 more rows
…
