Fallstudie (YACSDA) zur praktischen Datenanalyse mit dplyr - Data Se
…
Die resultierende Tabelle (“tibble”) hat 0 Zeilen. Diese Ziele wurden also nicht angeflogen.

Das Zeichen “|” bedeutet “oder” (im logischen Sinne). Demnach kann man die die ganze “Pfeife” so lesen:
Nimm flights
Filter Zeilen mit Ziel gleich MUC oder Zeilen mit Ziel gleich FRA.

Welche Ziele am häufigsten angeflogen?

flights %>%
  group_by(dest) %>%
  summarise(n_per_dest = n()) %>%
  arrange(desc(n_per_dest))

## # A tibble: 105 × 2
##     dest n_per_dest
##    <chr>      <int>
## 1    ORD      17283
## 2    ATL      17215
## 3    LAX      16174
## 4    BOS      15508
## 5    MCO      14082
## 6    CLT      14064
## 7    SFO      13331
## 8    FLL      12055
## 9    MIA      11728
## 10   DCA       9705
## # ... with 95 more rows
…
