How to draw a waffle plot - Data Se
…
What’s a waffle diagram?

A waffle diagram is a variant of (stacked) bar plots or pie plots. They do not have great perceptual properties, I’d suspect, but for some purposes they may be adequate. This is best explored by example. This post draws heavily from the introduction of hrbrmstr to his Waffle package.

Let’s make up some data and a case for it

Assume you would like to explain the differences between some sampling schemes, such as random sampling, stratified sampling, ad-hoc sampling and so on. For that, some illustrative plot might come in handy. Let’s simulate a dataset appropriate to explain sampling schemes.

set.seed(42)
d <- tibble(
  id = 1:100,
  sampled = sample(c(TRUE, FALSE), size = 100, replace = TRUE)
)
d
#> # A tibble: 100 x 2
#>       id sampled
#>    <int> <lgl>  
#>  1     1 TRUE   
#>  2     2 TRUE   
#>  3     3 TRUE   
#>  4     4 TRUE   
#>  5     5 FALSE  
#>  6     6 FALSE  
#>  7     7 FALSE  
#>  8     8 FALSE  
#>  9     9 TRUE   
#> 10    10 FALSE  
#> # … with 90 more rows
…
