…
## Welche Hersteller hat die meisten Autotypen?


```r
TopGear %>%
  select(Maker) %>%
  count(Maker) %>%
  arrange(desc(Maker))
```

```
## # A tibble: 51 × 2
##         Maker     n
##        <fctr> <int>
## 1       Volvo     8
## 2  Volkswagen    15
## 3    Vauxhall    17
## 4      Toyota    11
## 5      Suzuki     7
## 6      Subaru     4
## 7   Ssangyong     1
## 8       Smart     1
## 9       Skoda     4
## 10       SEAT     5
## # ... with 41 more rows
```
…
