…
## Welche Ziele am häufigsten angeflogen?


```r
flights %>%
  group_by(dest) %>%
  summarise(n_per_dest = n()) %>%
  arrange(desc(n_per_dest))
```

```
## # A tibble: 105 × 2
##     dest n_per_dest
##    <chr>      <int>
## 1    ORD      17283
## 2    ATL      17215
## 3    LAX      16174
## 4    BOS      15508
## 5    MCO      14082
## 6    CLT      14064
## 7    SFO      13331
## 8    FLL      12055
## 9    MIA      11728
## 10   DCA       9705
## # ... with 95 more rows
```
…
