…
Eine substanzielle Menge von Text. Was wohl die häufigsten Wörter sind?


### Worthäufigkeiten auszählen


```r
afd_df %>% 
  na.omit() %>%  # fehlende Werte löschen
  dplyr::count(token, sort = TRUE)
#> # A tibble: 7,087 × 2
#>   token     n
#>   <chr> <int>
#> 1   die  1151
#> 2   und  1147
#> 3   der   870
#> # ... with 7,084 more rows
```
…
