…
Background

Computing inter-rater reliability is a well-known, albeit maybe not very frequent task in data analysis. If there’s only one criteria and two raters, the proceeding is straigt forward; Cohen’s Kappa is the most widely used coefficient for that purpose. It is more challenging to compare multiple raters on one criterion; Fleiss’ Kappa is one way to get a coefficient. If there are multiple criteria, one way is to compute the mean of multiple Fleiss’ coefficients.

However, a different way, and the way presented in this post, consists of checking of all raters agree on one given item (and repeating that for all items). If rater A assigns two tags/criteria (tag1, tag2) to item A, then the other raters may not assign different tags (eg tag3, tag4) to that item, if a match should be scored. Note that this proceeding allows for different numbers of tags/criteria for the items (eg., item 1 with only 1 tag, but item 2 with 3 tags etc.). However, our grading should give some points, if, say, rater1 assigns tag1 and tag2, but raters 2 and 3 only assign tag1.

Sample data

Say, we would like to rate some tweets of policitians as to they express some form of populism, according to some widely accepted definition. Further assume, a number of raters (eg., 3) has hand-rated a number of tweets (eg., 250). Here are the results.

Get the data from here.

d <- read_csv("https://data-se.netlify.com/download/d_rating.csv")
d
#> # A tibble: 459 x 4
#>    text  tweet selection rater_name
#>    <chr> <dbl>     <dbl> <chr>     
#>  1 Anbei     1         4 rater1    
#>  2 WIE B     2        32 rater1    
#>  3 WIE B     2         5 rater1    
#>  4 ++ Nu     3         4 rater1    
#>  5 Wahlk     4         4 rater1    
#>  6 In fü     5         4 rater1    
#>  7 Ansch     6         4 rater1    
#>  8 Unser     7        32 rater1    
#>  9 Unser     7         5 rater1    
#> 10 Was w     8        32 rater1    
#> # … with 449 more rows
…
Bundle tags into list column

Of course, a number of different ways to transform the data are possible. Here, we transform the data into a wide format such that each rater is one column, and each line is a tweet. Each cell then indicates the selection of this rater for this this tweet. Importantly, this selection may encompass more than one tag, that’s why things are a little bit hairy.

First, we build a list column that holds the selection of a rater for one tweet. For example, the tags that rater1 gave to tweet 7 should now be encapsulated in one cell within the list column.

d_l <- d %>% 
  select(-text) %>%  # We don't neet it here, so we drop it
  group_by(rater_name, tweet) %>% 
  nest() %>% 
  arrange(tweet, rater_name) %>% 
  ungroup()

d_l
#> # A tibble: 425 x 3
#>    rater_name tweet data            
#>    <chr>      <dbl> <list>          
#>  1 rater1         1 <tibble [1 × 1]>
#>  2 rater2         1 <tibble [1 × 1]>
#>  3 rater3         1 <tibble [1 × 1]>
#>  4 rater1         2 <tibble [2 × 1]>
#>  5 rater2         2 <tibble [1 × 1]>
#>  6 rater3         2 <tibble [1 × 1]>
#>  7 rater1         3 <tibble [1 × 1]>
#>  8 rater2         3 <tibble [1 × 1]>
#>  9 rater3         3 <tibble [1 × 1]>
#> 10 rater1         4 <tibble [1 × 1]>
#> # … with 415 more rows
…
Get into wide format

Now we spread the data so that each rater has his/her column:

d_spread <- d_l %>% 
  spread(key = rater_name, value = data)

d_spread
#> # A tibble: 200 x 4
#>    tweet rater1           rater2           rater3          
#>    <dbl> <list>           <list>           <list>          
#>  1     1 <tibble [1 × 1]> <tibble [1 × 1]> <tibble [1 × 1]>
#>  2     2 <tibble [2 × 1]> <tibble [1 × 1]> <tibble [1 × 1]>
#>  3     3 <tibble [1 × 1]> <tibble [1 × 1]> <tibble [1 × 1]>
#>  4     4 <tibble [1 × 1]> <tibble [1 × 1]> <tibble [1 × 1]>
#>  5     5 <tibble [1 × 1]> <tibble [1 × 1]> <tibble [1 × 1]>
#>  6     6 <tibble [1 × 1]> <tibble [1 × 1]> <tibble [1 × 1]>
#>  7     7 <tibble [2 × 1]> <tibble [1 × 1]> <tibble [1 × 1]>
#>  8     8 <tibble [1 × 1]> <tibble [1 × 1]> <tibble [1 × 1]>
#>  9     9 <tibble [1 × 1]> <tibble [1 × 1]> <tibble [1 × 1]>
#> 10    10 <tibble [2 × 1]> <tibble [2 × 1]> <tibble [2 × 1]>
#> # … with 190 more rows
Now we have the data in a form where we can (quite) easily check something like “is the selection in line 1 the same for all rater-columns?”, and so on for all lines. R preferes comparing rows instead of comparing lines, at least when it comes to comparing different variables. So, the data are now in a form that suits further comparison (ie., checking for equality).

Tidying 1: Vectors instead of tibbles

Let’s simplify the tibbles to vectors, for easier access:

d_tidy1 <- d_spread %>% 
  transmute_at(c("rater1", "rater2", "rater3"), list(~map(., "selection")))

Note that the column names must be quoted here.

So, what did we do? We said to R that the columns “at the names” rater1, rater2, rater3 should be transformed (“transmuted”). And how should they be tranformed? By pulling the column “selection” out of each selected column (ie., rater1, rater2, rater3). Why do we need map? Because we have many data frames to which we want to apply a function (in each row of d_tidy1 there is one data frame in each of the selected columns!). map repeats (or maps) a function to each dataframe. The “pulling” of the vector is performed as standard operation of map if we do not further specify what map should do.

d_tidy1
#> # A tibble: 200 x 3
#>    rater1    rater2    rater3   
#>    <list>    <list>    <list>   
#>  1 <dbl [1]> <dbl [1]> <dbl [1]>
#>  2 <dbl [2]> <dbl [1]> <dbl [1]>
#>  3 <dbl [1]> <dbl [1]> <dbl [1]>
#>  4 <dbl [1]> <dbl [1]> <dbl [1]>
#>  5 <dbl [1]> <dbl [1]> <dbl [1]>
#>  6 <dbl [1]> <dbl [1]> <dbl [1]>
#>  7 <dbl [2]> <dbl [1]> <dbl [1]>
#>  8 <dbl [1]> <dbl [1]> <dbl [1]>
#>  9 <dbl [1]> <dbl [1]> <dbl [1]>
#> 10 <dbl [2]> <dbl [2]> <dbl [2]>
#> # … with 190 more rows
…
