On a confidence-interval-myth - Data Se
…
Let’s check that.

Draw many samples from the population

Taking flights as the population, let’s draw many samples from it, say 100.

flights %>% 
  select(arr_delay) %>% 
  drop_na(arr_delay) %>% 
  sample_n(100*100) %>% 
  mutate(sample_id = rep(1:100, times = 100)) -> flights_many_samples
  
flights_many_samples
#> # A tibble: 10,000 x 2
#>    arr_delay sample_id
#>        <dbl>     <int>
#>  1        -3         1
#>  2       -12         2
#>  3         5         3
#>  4       -12         4
#>  5       -12         5
#>  6        88         6
#>  7        17         7
#>  8        -5         8
#>  9        -4         9
#> 10        -6        10
#> # … with 9,990 more rows

flights_many_samples %>% 
  group_by(sample_id) %>% 
  summarise(delay_sample_avg = mean(arr_delay)) -> flights_many_samples_summary

flights_many_samples_summary
#> # A tibble: 100 x 2
#>    sample_id delay_sample_avg
#>        <int>            <dbl>
#>  1         1             5.26
#>  2         2             7.98
#>  3         3             9.47
#>  4         4             3.27
#>  5         5             6.63
#>  6         6             2.88
#>  7         7            13.9 
#>  8         8             7.59
#>  9         9             4.78
#> 10        10             7.03
#> # … with 90 more rows
…
