DataExploR: Typische Businessfragen mit R analysieren - Data Se
…
Items umkodieren

Häufig kommt es vor, dass ein Item umkodiert werden muss. Was heißt umkodieren und wozu braucht man es? Normalerweise sind Items “richtig herum” formuliert, etwa “Ich gehe gerne unter Leute” wäre ein Beispiel für ein Extraversionsitem. Es ist in Richtung Extraversion formuliert (oder, synonym, “kodiert”). Aber das Item “Ich bleibe am liebsten alleine zuhause” ist nicht Richtung Extraversion kodiert, sondern im Gegenteil in Richtung Introversion. Leute, die diesem Item zustimmen, sind also nicht hoch sondern gering extrovertiert. Das Item muss zuerst “umgedreht werden”: Hat jemand die höchste Stufe (hier: 4) angekreuzt, so muss das auf die geringste Antwortstufe (hier: 1) umgedreht werden und so weiter.

Das kann man wie folgt leisten; nehmen wir an, Item 01 müsse umkodiert werden:

extra_items %>% 
  rec(i01, rec = "1=4; 2=3; 3=2; 4=1")
#> # A tibble: 826 x 11
#>      i01  i02r   i03   i04   i05  i06r   i07   i08   i09   i10 i01_r
#>    <int> <int> <int> <int> <int> <int> <int> <int> <int> <int> <dbl>
#>  1     3     3     3     3     4     4     3     2     3     1     2
#>  2     2     2     1     2     3     2     2     3     3     1     3
#>  3     3     4     1     4     4     1     3     2     3     1     2
#>  4     3     3     2     4     3     3     3     3     3     2     2
#>  5     4     3     1     4     4     3     4     2     3     4     1
#>  6     3     2     1     4     2     3     4     3     3     3     2
#>  7     4     4     1     3     3     3     2     3     3     2     1
#>  8     3     3     2     3     2     2     3     2     4     1     2
#>  9     4     4     1     4     3     4     3     3     4     2     1
#> 10     4     4     2     4     3     3     3     3     3     3     1
#> # ... with 816 more rows
…
Der Punkt . steht dabei als Platzhalter für jeweils eine Spalte, sozusagen die Spalte “i”

Man kann den case_when Befehl grob so ins Deutsche übersetzen:

Wenn eine Zelle in der aktuellen Spalte den Wert “1” hat, dann soll das in “stimme überhaupt nicht zu” übersetzt werden. Für übrige Werte (2,3,4) gilt das Gleiche.

Zeilenmittelwerte berechnen

Häufig möchte man Zeilenmittelwerte oder Zeilensummen berechnen. Das kann man so machen:

extra_items %>%
  row_means(i01:i10, n = 9) -> extra_items
extra_items
#> # A tibble: 826 x 11
#>      i01  i02r   i03   i04   i05  i06r   i07   i08   i09   i10 rowmeans
#>    <int> <int> <int> <int> <int> <int> <int> <int> <int> <int>    <dbl>
#>  1     3     3     3     3     4     4     3     2     3     1      2.9
#>  2     2     2     1     2     3     2     2     3     3     1      2.1
#>  3     3     4     1     4     4     1     3     2     3     1      2.6
#>  4     3     3     2     4     3     3     3     3     3     2      2.9
#>  5     4     3     1     4     4     3     4     2     3     4      3.2
#>  6     3     2     1     4     2     3     4     3     3     3      2.8
#>  7     4     4     1     3     3     3     2     3     3     2      2.8
#>  8     3     3     2     3     2     2     3     2     4     1      2.5
#>  9     4     4     1     4     3     4     3     3     4     2      3.2
#> 10     4     4     2     4     3     3     3     3     3     3      3.2
#> # ... with 816 more rows
…
