Grundlagen des Textminings mit R
…
Im Ergebnis hätten wir einen Dataframe, ein Prachtstück. Mit head(afd) können Sie sich den Beginn dieses Textvektor anzeigen lassen. Auch die Stopwörter entfernen wir wieder wie gehabt.

afd %>% 
  unnest_tokens(output = token, input = content) %>% 
  dplyr::filter(str_detect(token, "[a-z]")) -> afd_long

Insgesamt 26396 Wörter5; eine substanzielle Menge von Text. Was wohl die häufigsten Wörter sind?

Worthäufigkeiten auszählen

afd_long %>% 
  na.omit() %>%  # fehlende Werte löschen
  count(token, sort = TRUE)
#> # A tibble: 7,087 x 2
#>    token     n
#>    <chr> <int>
#>  1   die  1151
#>  2   und  1147
#>  3   der   870
#>  4    zu   435
#>  5   für   392
#>  6    in   392
#>  7   den   271
#>  8   von   257
#>  9   ist   251
#> 10   das   225
#> # ... with 7,077 more rows
…
