Why "n-1" in empirical variance? A simulation. - Data Se
…
What about the actual numbers. What are the smallest widths \(w\)?

df_variance_sds %<>% 
  mutate(width = 2 * simu_mean_sd) %>% 
  arrange(width) 

df_variance_sds
#> # A tibble: 999 x 4
#>    sample_size simu_mean_sd simu_mean_avg  width
#>          <int>        <dbl>         <dbl>  <dbl>
#>  1         981       0.0433         0.998 0.0867
#>  2         968       0.0435         1.00  0.0869
#>  3         996       0.0436         0.999 0.0871
#>  4         974       0.0437         0.999 0.0873
#>  5         992       0.0438         1.000 0.0877
#>  6         983       0.0439         1.00  0.0878
#>  7         967       0.0440         0.999 0.0880
#>  8         985       0.0441         1.00  0.0882
#>  9         995       0.0442         0.999 0.0883
#> 10         928       0.0442         1.000 0.0885
#> # ... with 989 more rows
…
